\relax 
\@writefile{toc}{\contentsline {section}{\numberline {1}}{1}{}\protected@file@percent }
\@writefile{toc}{\contentsline {section}{\numberline {2}}{1}{}\protected@file@percent }
\@writefile{toc}{\contentsline {section}{\numberline {3}}{1}{}\protected@file@percent }
\@writefile{toc}{\contentsline {section}{\numberline {4}}{1}{}\protected@file@percent }
\@writefile{toc}{\contentsline {section}{\numberline {5}}{2}{}\protected@file@percent }
\@writefile{toc}{\contentsline {section}{\numberline {6}}{2}{}\protected@file@percent }
\@writefile{toc}{\contentsline {section}{\numberline {7}}{2}{}\protected@file@percent }
\@writefile{toc}{\contentsline {section}{\numberline {8}}{3}{}\protected@file@percent }
\@writefile{toc}{\contentsline {section}{\numberline {9}}{3}{}\protected@file@percent }
\@writefile{toc}{\contentsline {section}{\numberline {10}}{3}{}\protected@file@percent }
\@writefile{toc}{\contentsline {section}{\numberline {11}}{4}{}\protected@file@percent }
\@writefile{toc}{\contentsline {section}{\numberline {12}}{4}{}\protected@file@percent }
\@writefile{toc}{\contentsline {section}{\numberline {13}}{4}{}\protected@file@percent }
\@writefile{toc}{\contentsline {section}{\numberline {14}}{5}{}\protected@file@percent }
\@writefile{toc}{\contentsline {section}{\numberline {15}}{5}{}\protected@file@percent }
\@writefile{toc}{\contentsline {section}{\numberline {16}Slide}{6}{}\protected@file@percent }
\@writefile{toc}{\contentsline {section}{\numberline {17}}{6}{}\protected@file@percent }
\@writefile{toc}{\contentsline {section}{\numberline {18}}{6}{}\protected@file@percent }
\@writefile{toc}{\contentsline {section}{\numberline {19}}{6}{}\protected@file@percent }
\gdef \@abspage@last{6}
